<svg xmlns="http://www.w3.org/2000/svg" viewBox="0 0 20 20">
    <path
        d="M14.22 19.91H2a2 2 0 01-1-.31A1.93 1.93 0 010 18V9a2 2 0 012-2h9.09A2 2 0 0113 8.91V15a4 4 0 00.35 1.89 1.69 1.69 0 00.71.64 1.12 1.12 0 01.5.44 2 2 0 010 1.13c0 .19 0 .33-.07.44a.66.66 0 01-.07.3s-.06.07-.2.07zm-5.63-8.82a.6.6 0 00-.27.06.41.41 0 00-.26.39v.65a.4.4 0 00.26.38.58.58 0 00.53 0 .39.39 0 00.24-.35v-.66a.42.42 0 00-.24-.39.66.66 0 00-.26-.08zm-4.72 0a.48.48 0 00-.52.42v.65a.4.4 0 00.26.37.61.61 0 00.53 0 .44.44 0 00.24-.36v-.65a.39.39 0 00-.11-.27.53.53 0 00-.4-.15zM18.82 8.63a7.21 7.21 0 00-7.16-7.23V.21A8.41 8.41 0 0120 8.63z"
        fill="#09b4c6" />
    <path
        d="M15.75 8.61a4.19 4.19 0 00-4.11-4.2V3.22a5.39 5.39 0 015.3 5.38zM.6 5.26a.51.51 0 01-.49-.53V1.26c0-.71.31-1 1.08-1H2c1.37 0 1.65.8 1.65 1.47a1.53 1.53 0 01-1.77 1.53h-.7v1.55a.49.49 0 01-.18.34.48.48 0 01-.37.1zm8.6 0h-.08a.51.51 0 01-.52-.52V3.2L7.33 1.06a.57.57 0 01-.07-.31.56.56 0 01.61-.49.49.49 0 01.43.25l.9 1.56.9-1.57a.54.54 0 01.44-.24.55.55 0 01.57.5.51.51 0 01-.07.3L9.72 3.18v1.55a.23.23 0 010 .07.51.51 0 01-.52.45zM7 5.25a.47.47 0 01-.45-.37l-.44-1.21H4.88L4.49 4.9a.5.5 0 01-.5.35H4a.51.51 0 01-.56-.49.85.85 0 010-.23L4.79.8a.7.7 0 01.7-.54h.07a.72.72 0 01.69.57l1.29 3.7a.52.52 0 010 .21.55.55 0 01-.54.51zM5.19 2.73h.62l-.2-.62c0-.12-.07-.24-.11-.37 0 .14-.08.27-.11.39zm-4-.42H2a.5.5 0 00.37-.17.49.49 0 00.14-.38c0-.38-.18-.54-.58-.54h-.74v.12z"
        fill="#09b4c6" /></svg>